<svg width="1199" height="186" viewBox="0 0 1199 186" fill="none" xmlns="http://www.w3.org/2000/svg">
<path d="M166.762 78.425C163.755 78.425 161.049 77.2223 158.944 75.1175C156.84 73.0128 155.637 70.3066 155.637 67.2998C155.637 64.293 156.84 61.8876 158.944 59.7828C161.049 57.6781 163.755 56.4753 166.762 56.4753C169.769 56.4753 172.174 57.6781 174.279 59.7828C176.384 61.8876 177.587 64.293 177.587 67.2998C177.587 70.3066 176.384 73.0128 174.279 75.1175C172.174 77.523 169.769 78.425 166.762 78.425ZM177.587 83.8372V157.805H155.938V83.8372H177.587Z" fill="white"/>
<path d="M204.047 157.804H182.398V120.82C182.398 110.597 186.006 101.878 193.222 94.6612C200.438 87.4448 209.158 83.8367 219.381 83.8367C229.604 83.8367 238.324 87.4448 245.54 94.6612C252.757 101.878 256.365 110.597 256.365 120.82V157.804H234.716V120.82C234.716 116.611 233.213 113.003 230.206 109.996C227.199 106.989 223.591 105.486 219.381 105.486C215.172 105.486 211.564 106.989 208.557 109.996C205.55 113.003 204.047 116.611 204.047 120.82V157.804Z" fill="white"/>
<path d="M335.444 120.821C335.444 131.044 331.836 139.764 324.619 146.98C317.403 154.196 308.683 157.804 298.46 157.804C288.237 157.804 279.517 154.196 272.301 146.98C265.085 139.764 261.477 131.044 261.477 120.821C261.477 110.598 265.085 101.878 272.301 94.6616C279.517 87.4453 288.237 83.8371 298.46 83.8371C306.278 83.8371 311.39 84.7392 313.795 86.2426V64.8943H335.444V120.821ZM309.285 131.645C312.292 128.638 313.795 125.03 313.795 120.821C313.795 116.611 312.292 113.003 309.285 109.996C306.278 106.989 302.67 105.486 298.46 105.486C294.251 105.486 290.643 106.989 287.636 109.996C284.629 113.003 283.126 116.611 283.126 120.821C283.126 125.03 284.629 128.638 287.636 131.645C290.643 134.652 294.251 136.155 298.46 136.155C302.67 136.155 306.278 134.652 309.285 131.645Z" fill="white"/>
<path d="M377.539 157.804C367.316 157.804 358.596 154.196 351.38 146.98C344.164 139.763 340.555 131.044 340.555 120.82C340.555 110.597 344.164 101.878 351.38 94.6612C358.596 87.4448 367.316 83.8367 377.539 83.8367C387.762 83.8367 396.482 87.4448 403.698 94.6612C410.915 101.878 414.523 110.597 414.523 120.82C414.523 131.044 410.915 139.763 403.698 146.98C396.482 154.196 387.762 157.804 377.539 157.804ZM388.364 131.645C391.37 128.638 392.874 125.03 392.874 120.82C392.874 116.611 391.37 113.003 388.364 109.996C385.357 106.989 381.749 105.486 377.539 105.486C373.33 105.486 369.721 106.989 366.715 109.996C363.708 113.003 362.204 116.611 362.204 120.82C362.204 125.03 363.708 128.638 366.715 131.645C369.721 134.652 373.33 136.155 377.539 136.155C381.749 136.155 385.357 134.652 388.364 131.645Z" fill="white"/>
<path d="M424.445 132.247C421.438 122.324 422.34 113.003 426.851 103.983C431.662 94.9624 438.878 88.9488 448.8 85.942C458.723 82.9352 468.044 83.8372 477.064 88.3475C486.085 93.1583 492.098 100.375 495.105 109.996C498.112 119.919 497.21 129.24 492.7 138.26C487.889 147.281 480.672 153.294 471.051 156.301C463.534 158.707 458.422 159.308 455.716 158.707L462.03 179.153L441.283 185.467L424.445 132.247ZM473.155 128.338C475.26 124.429 475.561 120.52 474.358 116.611C473.155 112.703 470.449 109.696 466.841 107.591C463.233 105.787 459.324 105.186 455.115 106.388C451.206 107.591 448.199 109.996 446.094 113.905C443.989 117.814 443.689 121.422 444.891 125.632C446.094 129.841 448.8 132.547 452.408 134.652C456.317 136.757 459.925 137.058 464.135 135.855C468.345 134.652 471.351 132.247 473.155 128.338Z" fill="white"/>
<path d="M551.934 105.486H541.71C537.501 105.486 533.893 106.989 530.886 109.996C527.879 113.003 526.376 116.611 526.376 120.82C526.376 125.03 527.879 128.638 530.886 131.645C533.893 134.652 537.501 136.155 541.71 136.155C545.92 136.155 549.528 134.652 552.535 131.645C555.542 128.638 557.045 125.03 557.045 120.82V83.8367H578.995V120.82C578.995 131.044 575.387 139.763 568.17 146.98C560.954 154.196 552.234 157.804 542.011 157.804C531.788 157.804 523.068 154.196 515.852 146.98C508.636 139.763 505.027 131.044 505.027 120.82C505.027 110.597 508.636 101.878 515.852 94.6612C523.068 87.4448 531.788 83.8367 542.011 83.8367H552.234V105.486H551.934Z" fill="white"/>
<path d="M583.505 120.82C583.505 110.597 587.114 101.878 594.33 94.6612C601.546 87.4448 611.469 83.8367 624.398 83.8367V105.486C617.783 105.486 612.972 106.989 609.965 109.996C606.958 113.003 605.455 116.611 605.455 120.82V157.804H583.806V120.82H583.505Z" fill="white"/>
<path d="M681.527 131.044V120.821C681.527 116.612 680.024 113.003 677.017 109.997C674.01 106.99 670.402 105.486 666.193 105.486C661.983 105.486 658.375 106.99 655.368 109.997C652.361 113.003 650.858 116.612 650.858 120.821C650.858 125.031 652.361 128.639 655.368 131.646C658.375 134.652 661.983 136.156 666.193 136.156H703.176V158.105H666.193C655.969 158.105 647.25 154.497 640.033 147.281C632.817 140.065 629.209 131.345 629.209 121.122C629.209 110.899 632.817 102.179 640.033 94.9626C647.25 87.7462 655.969 84.1381 666.193 84.1381C676.416 84.1381 685.135 87.7462 692.352 94.9626C699.568 102.179 703.176 110.899 703.176 121.122V131.345H681.527V131.044Z" fill="white"/>
<path d="M729.936 157.804H708.287V120.82C708.287 110.597 711.895 101.878 719.111 94.6612C726.328 87.4448 735.047 83.8367 745.271 83.8367C755.494 83.8367 764.213 87.4448 771.43 94.6612C778.646 101.878 782.254 110.597 782.254 120.82V157.804H760.605V120.82C760.605 116.611 759.102 113.003 756.095 109.996C753.088 106.989 749.48 105.486 745.271 105.486C741.061 105.486 737.453 106.989 734.446 109.996C731.439 113.003 729.936 116.611 729.936 120.82V157.804Z" fill="white"/>
<path d="M809.015 105.486V120.821C809.015 125.03 810.518 128.638 813.525 131.645C816.532 134.652 821.343 136.155 827.958 136.155V157.804C815.329 157.804 805.106 154.196 797.89 146.98C790.674 139.764 787.065 131.044 787.065 120.821V64.8943H808.714V83.8371H827.657V105.486H809.015Z" fill="white"/>
<path d="M888.094 83.8367V105.486H858.026C857.425 105.786 857.124 106.388 857.124 106.688C857.124 108.192 860.431 109.695 867.347 111.499C876.367 113.303 882.381 115.709 885.688 118.716C888.996 121.722 890.8 126.233 890.8 132.547C890.8 140.665 888.395 146.98 883.584 151.49C878.773 155.699 871.857 157.804 862.837 157.804H833.069V136.155H862.536C863.739 135.554 864.34 135.253 864.34 134.652C864.34 133.449 861.634 132.246 855.921 130.743C847.803 128.638 842.09 125.631 838.482 121.722C834.874 117.814 833.37 112.702 833.37 106.989C833.37 91.6544 840.887 83.8367 855.921 83.8367H888.094V83.8367Z" fill="white"/>
<path d="M906.736 157.805C903.729 157.805 901.023 156.602 898.919 154.497C896.814 152.392 895.611 149.686 895.611 146.679C895.611 143.673 896.814 141.267 898.919 139.162C901.023 137.058 903.729 135.855 906.736 135.855C909.743 135.855 912.148 137.058 914.253 139.162C916.358 141.267 917.561 143.673 917.561 146.679C917.561 149.686 916.358 152.392 914.253 154.497C912.148 156.602 909.743 157.805 906.736 157.805Z" fill="white"/>
<path d="M985.815 146.98C978.598 154.196 969.879 157.804 959.655 157.804C949.432 157.804 940.713 154.196 933.496 146.98C926.28 139.763 922.672 131.044 922.672 120.82C922.672 110.597 926.28 101.878 933.496 94.6612C940.713 87.4448 949.432 83.8367 959.655 83.8367C969.879 83.8367 978.598 87.4448 985.815 94.6612L988.521 97.3673L973.186 112.702L970.48 109.996C967.473 106.989 963.865 105.486 959.655 105.486C955.446 105.486 951.838 106.989 948.831 109.996C945.824 113.003 944.321 116.611 944.321 120.82C944.321 125.03 945.824 128.638 948.831 131.645C951.838 134.652 955.446 136.155 959.655 136.155C963.865 136.155 967.473 134.652 970.48 131.645L973.186 128.939L988.521 144.273L985.815 146.98Z" fill="white"/>
<path d="M1030.32 157.804C1020.09 157.804 1011.37 154.196 1004.16 146.98C996.94 139.763 993.332 131.044 993.332 120.82C993.332 110.597 996.94 101.878 1004.16 94.6612C1011.37 87.4448 1020.09 83.8367 1030.32 83.8367C1040.54 83.8367 1049.26 87.4448 1056.47 94.6612C1063.69 101.878 1067.3 110.597 1067.3 120.82C1067.3 131.044 1063.69 139.763 1056.47 146.98C1049.26 154.196 1040.54 157.804 1030.32 157.804ZM1041.14 131.645C1044.15 128.638 1045.65 125.03 1045.65 120.82C1045.65 116.611 1044.15 113.003 1041.14 109.996C1038.13 106.989 1034.52 105.486 1030.32 105.486C1026.11 105.486 1022.5 106.989 1019.49 109.996C1016.48 113.003 1014.98 116.611 1014.98 120.82C1014.98 125.03 1016.48 128.638 1019.49 131.645C1022.5 134.652 1026.11 136.155 1030.32 136.155C1034.52 136.155 1038.13 134.652 1041.14 131.645Z" fill="white"/>
<path d="M1135.85 94.3605C1143.07 87.1442 1151.79 83.8367 1162.01 83.8367C1172.24 83.8367 1180.96 87.4448 1188.17 94.6612C1195.39 101.878 1199 110.597 1199 120.82V157.804H1177.35V120.82C1177.35 116.611 1175.84 113.003 1172.84 109.996C1169.83 106.989 1166.22 105.486 1162.01 105.486C1157.8 105.486 1154.2 106.989 1151.19 109.996C1148.18 113.003 1146.68 116.611 1146.68 120.82V157.804H1125.03V120.82C1125.03 116.611 1123.53 113.003 1120.52 109.996C1117.51 106.989 1113.9 105.486 1109.69 105.486C1105.49 105.486 1101.88 106.989 1098.87 109.996C1095.86 113.003 1094.36 116.611 1094.36 120.82V157.804H1072.71V120.82C1072.71 110.597 1076.32 101.878 1083.54 94.6612C1090.75 87.4448 1099.47 83.8367 1109.69 83.8367C1119.62 83.8367 1128.34 87.4448 1135.85 94.3605Z" fill="white"/>
<path d="M17.6526 148.141C30.3123 152.583 40.751 151.472 49.635 142.366C57.4084 134.371 58.0747 125.265 54.7433 115.27C53.1886 110.384 51.4118 105.72 49.635 100.834C47.1919 93.9486 48.7466 88.174 54.5212 83.732C60.5178 79.29 69.846 79.0679 75.3985 83.2878C89.6129 93.7265 94.7212 123.932 85.8372 143.033C78.0637 159.69 56.52 168.796 37.6416 163.466C28.7576 161.245 23.8714 157.469 17.6526 148.141Z" fill="#F6A3A9"/>
<path d="M52.2995 76.6242C62.4805 76.6242 70.7338 68.3709 70.7338 58.1899C70.7338 48.0089 62.4805 39.7556 52.2995 39.7556C42.1185 39.7556 33.8652 48.0089 33.8652 58.1899C33.8652 68.3709 42.1185 76.6242 52.2995 76.6242Z" fill="#F6A3A9"/>
<path d="M20.5398 152.138C38.3078 159.467 53.4106 158.579 66.7366 145.919C78.2858 135.036 80.0626 121.933 76.0648 107.496C74.0659 100.389 71.8449 93.5038 69.846 86.3966C66.9587 76.4021 69.4018 68.1844 78.2858 62.4098C87.1698 56.4131 100.718 56.8573 108.491 63.0761C128.036 78.8452 133.589 122.821 119.152 149.695C106.492 172.793 75.1764 184.343 48.0802 175.459C35.8647 171.461 28.9796 165.908 20.5398 152.138Z" fill="white"/>
<path d="M72.7335 52.8598C87.3303 52.8598 99.1634 41.0267 99.1634 26.4299C99.1634 11.8331 87.3303 0 72.7335 0C58.1367 0 46.3036 11.8331 46.3036 26.4299C46.3036 41.0267 58.1367 52.8598 72.7335 52.8598Z" fill="white"/>
<path d="M38.5298 142.366C25.8701 147.03 15.4314 145.476 7.21371 136.37C-1.00399 127.263 -1.67029 116.603 2.54961 105.498C4.54851 99.9452 8.54631 95.2811 15.2093 96.3916C21.206 97.5021 22.5386 102.832 22.5386 107.941C22.5386 121.267 28.7574 131.928 38.5298 142.366Z" fill="white"/>
<path d="M14.3208 94.1706C20.0859 94.1706 24.7595 89.497 24.7595 83.7319C24.7595 77.9668 20.0859 73.2932 14.3208 73.2932C8.55564 73.2932 3.88208 77.9668 3.88208 83.7319C3.88208 89.497 8.55564 94.1706 14.3208 94.1706Z" fill="white"/>
</svg>
