<svg width="112" height="60" viewBox="0 0 112 60" fill="none" xmlns="http://www.w3.org/2000/svg">
<path d="M42 5.49996C28 -3.70004 8.16667 1.66663 0 5.49996V50C0 58 7.33333 60 11 60H111.5C108.167 54.3333 96.3 42.4 75.5 40C49.5 37 59.5 17 42 5.49996Z" fill="#FF8C88"/>
</svg>
