<svg width="200" height="200" viewBox="0 0 200 200" fill="none" xmlns="http://www.w3.org/2000/svg">
<circle cx="100" cy="100" r="100" fill="#00B900"/>
<path d="M100 41.6665C136.758 41.6665 166.667 65.9332 166.667 95.7665C166.667 107.708 162.042 118.458 152.375 129.05C138.392 145.15 107.117 164.758 100 167.758C93.0833 170.675 93.8833 166.117 94.2 164.317L94.225 164.166L95.175 158.458C95.4 156.758 95.6333 154.116 94.9583 152.433C94.2083 150.575 91.2583 149.608 89.0917 149.142C57.05 144.917 33.3333 122.508 33.3333 95.7665C33.3333 65.9332 63.25 41.6665 100 41.6665ZM75.1833 105.717H62.475V82.6498C62.475 82.3065 62.3392 81.9771 62.0972 81.7335C61.8552 81.49 61.5267 81.352 61.1833 81.3498H56.5C56.3293 81.3498 56.1602 81.3835 56.0025 81.4488C55.8448 81.5141 55.7015 81.6099 55.5808 81.7306C55.4601 81.8513 55.3643 81.9946 55.299 82.1523C55.2336 82.3101 55.2 82.4791 55.2 82.6498V111.7C55.2 112.042 55.3417 112.366 55.5667 112.591V112.6L55.5833 112.617L55.6 112.633C55.8417 112.866 56.1647 112.994 56.5 112.992H75.1833C75.9 112.992 76.475 112.408 76.475 111.692V107.025C76.4761 106.854 76.4436 106.685 76.3792 106.527C76.3149 106.369 76.2201 106.225 76.1001 106.103C75.9802 105.982 75.8375 105.885 75.6802 105.819C75.5229 105.752 75.3541 105.718 75.1833 105.717V105.717ZM81.775 81.3498C81.4302 81.3498 81.0996 81.4868 80.8558 81.7306C80.612 81.9744 80.475 82.3051 80.475 82.6498V111.7C80.475 112.417 81.0583 112.992 81.775 112.992H86.4583C87.175 112.992 87.75 112.408 87.75 111.7V82.6498C87.75 82.3065 87.6142 81.9771 87.3722 81.7335C87.1302 81.49 86.8017 81.352 86.4583 81.3498H81.775ZM113.967 81.3498C113.622 81.3498 113.291 81.4868 113.047 81.7306C112.804 81.9744 112.667 82.3051 112.667 82.6498V99.8998L99.3583 81.9332C99.3247 81.8894 99.2885 81.8477 99.25 81.8082V81.7998C99.2237 81.7707 99.1958 81.7429 99.1667 81.7165L99.1417 81.6915C99.1131 81.6642 99.0825 81.6391 99.05 81.6165H99.0417L99 81.5832L98.975 81.5665C98.962 81.5568 98.948 81.5484 98.9333 81.5415L98.8667 81.4998H98.85L98.825 81.4832L98.7417 81.4498L98.7083 81.4332C98.6811 81.4233 98.6532 81.4149 98.625 81.4082H98.6083L98.5833 81.3998L98.5083 81.3832H98.4583L98.4333 81.3748H98.4L98.3833 81.3665H93.6C93.2567 81.3665 92.9273 81.5023 92.6837 81.7443C92.4401 81.9863 92.3022 82.3148 92.3 82.6582V111.708C92.3 112.425 92.8833 113 93.6 113H98.2667C98.9917 113 99.575 112.416 99.575 111.708V94.4582L112.908 112.458C112.997 112.582 113.107 112.689 113.233 112.775L113.242 112.783L113.325 112.833L113.358 112.85C113.38 112.862 113.402 112.874 113.425 112.883L113.483 112.908L113.525 112.925C113.553 112.934 113.58 112.942 113.608 112.95H113.633C113.742 112.981 113.854 112.998 113.967 113H118.633C119.358 113 119.942 112.416 119.942 111.708V82.6498C119.942 82.3051 119.805 81.9744 119.561 81.7306C119.317 81.4868 118.986 81.3498 118.642 81.3498H113.967V81.3498ZM145.758 87.3248V82.6582C145.759 82.4875 145.727 82.3182 145.663 82.16C145.598 82.0019 145.503 81.858 145.383 81.7365C145.264 81.615 145.121 81.5183 144.964 81.452C144.806 81.3856 144.637 81.3509 144.467 81.3498H125.783C125.447 81.3502 125.124 81.4818 124.883 81.7165H124.875L124.867 81.7332L124.85 81.7582C124.617 81.9969 124.486 82.3164 124.483 82.6498V111.7C124.483 112.042 124.625 112.366 124.85 112.591L124.867 112.617L124.883 112.633C125.125 112.865 125.448 112.993 125.783 112.992H144.467C145.183 112.992 145.758 112.408 145.758 111.692V107.025C145.759 106.854 145.727 106.685 145.663 106.527C145.598 106.369 145.503 106.225 145.383 106.103C145.264 105.982 145.121 105.885 144.964 105.819C144.806 105.752 144.637 105.718 144.467 105.717H131.75V100.808H144.458C145.175 100.808 145.75 100.225 145.75 99.5082V94.8415C145.751 94.6708 145.719 94.5015 145.654 94.3434C145.59 94.1852 145.495 94.0413 145.375 93.9198C145.255 93.7983 145.113 93.7016 144.955 93.6353C144.798 93.569 144.629 93.5343 144.458 93.5332H131.75V88.6248H144.458C145.175 88.6248 145.75 88.0415 145.75 87.3248H145.758Z" fill="white"/>
</svg>
