<svg width="336" height="280" viewBox="0 0 336 280" fill="none" xmlns="http://www.w3.org/2000/svg">
<rect width="336" height="280" fill="black"/>
<path d="M87.4512 140V127.831H91.1284L93.3364 136.132L95.5195 127.831H99.2051V140H96.9224V130.421L94.5068 140H92.1411L89.7339 130.421V140H87.4512ZM106.734 137.194L109.058 137.584C108.759 138.437 108.286 139.087 107.639 139.535C106.997 139.978 106.192 140.199 105.223 140.199C103.69 140.199 102.556 139.698 101.82 138.697C101.239 137.894 100.948 136.882 100.948 135.659C100.948 134.198 101.33 133.055 102.094 132.23C102.857 131.4 103.823 130.985 104.991 130.985C106.302 130.985 107.337 131.42 108.095 132.289C108.853 133.152 109.216 134.477 109.183 136.265H103.339C103.355 136.956 103.544 137.496 103.903 137.883C104.263 138.265 104.711 138.456 105.248 138.456C105.613 138.456 105.92 138.356 106.169 138.157C106.418 137.958 106.607 137.637 106.734 137.194ZM106.867 134.837C106.85 134.162 106.676 133.65 106.344 133.301C106.012 132.947 105.608 132.77 105.132 132.77C104.623 132.77 104.202 132.955 103.87 133.326C103.538 133.697 103.375 134.201 103.38 134.837H106.867ZM119.177 140H117.01V138.705C116.651 139.209 116.224 139.585 115.732 139.834C115.245 140.077 114.752 140.199 114.254 140.199C113.242 140.199 112.373 139.792 111.648 138.979C110.929 138.16 110.569 137.02 110.569 135.559C110.569 134.065 110.92 132.931 111.623 132.156C112.326 131.375 113.214 130.985 114.288 130.985C115.273 130.985 116.125 131.395 116.844 132.214V127.831H119.177V140ZM112.951 135.401C112.951 136.342 113.081 137.023 113.341 137.443C113.718 138.052 114.243 138.356 114.918 138.356C115.455 138.356 115.912 138.13 116.288 137.676C116.664 137.216 116.853 136.533 116.853 135.625C116.853 134.613 116.67 133.885 116.305 133.442C115.939 132.994 115.472 132.77 114.902 132.77C114.348 132.77 113.884 132.991 113.507 133.434C113.137 133.871 112.951 134.527 112.951 135.401ZM121.484 129.989V127.831H123.817V129.989H121.484ZM121.484 140V131.185H123.817V140H121.484ZM132.018 140V138.68C131.697 139.151 131.274 139.521 130.748 139.792C130.228 140.064 129.677 140.199 129.096 140.199C128.504 140.199 127.973 140.069 127.502 139.809C127.032 139.549 126.692 139.184 126.481 138.713C126.271 138.243 126.166 137.593 126.166 136.763V131.185H128.499V135.235C128.499 136.475 128.54 137.236 128.623 137.518C128.712 137.795 128.869 138.016 129.096 138.182C129.323 138.343 129.611 138.423 129.959 138.423C130.358 138.423 130.715 138.315 131.03 138.099C131.346 137.878 131.562 137.607 131.678 137.286C131.794 136.959 131.852 136.165 131.852 134.903V131.185H134.185V140H132.018ZM136.434 131.185H138.584V132.388C139.353 131.453 140.269 130.985 141.332 130.985C141.896 130.985 142.386 131.102 142.801 131.334C143.216 131.566 143.556 131.918 143.822 132.388C144.209 131.918 144.627 131.566 145.075 131.334C145.523 131.102 146.002 130.985 146.511 130.985C147.159 130.985 147.707 131.118 148.155 131.384C148.603 131.644 148.938 132.028 149.159 132.538C149.32 132.914 149.4 133.523 149.4 134.364V140H147.067V134.961C147.067 134.087 146.987 133.523 146.827 133.268C146.611 132.936 146.279 132.77 145.831 132.77C145.504 132.77 145.197 132.87 144.909 133.069C144.621 133.268 144.414 133.561 144.287 133.949C144.159 134.331 144.096 134.937 144.096 135.767V140H141.763V135.169C141.763 134.311 141.722 133.758 141.639 133.509C141.556 133.26 141.426 133.074 141.249 132.953C141.077 132.831 140.842 132.77 140.543 132.77C140.183 132.77 139.86 132.867 139.572 133.061C139.284 133.254 139.076 133.534 138.949 133.899C138.827 134.264 138.767 134.87 138.767 135.717V140H136.434V131.185ZM156.489 140V127.831H161.66C162.961 127.831 163.904 127.942 164.491 128.163C165.083 128.379 165.556 128.766 165.91 129.325C166.264 129.884 166.441 130.523 166.441 131.243C166.441 132.156 166.173 132.911 165.636 133.509C165.099 134.101 164.297 134.474 163.229 134.629C163.76 134.939 164.197 135.28 164.541 135.65C164.889 136.021 165.357 136.68 165.943 137.626L167.429 140H164.491L162.714 137.352C162.083 136.406 161.652 135.811 161.419 135.567C161.187 135.318 160.941 135.15 160.681 135.061C160.421 134.967 160.008 134.92 159.444 134.92H158.946V140H156.489ZM158.946 132.978H160.764C161.942 132.978 162.678 132.928 162.972 132.828C163.265 132.729 163.495 132.557 163.661 132.313C163.827 132.07 163.91 131.766 163.91 131.4C163.91 130.991 163.799 130.662 163.578 130.413C163.362 130.158 163.055 129.998 162.656 129.931C162.457 129.903 161.859 129.89 160.863 129.89H158.946V132.978ZM173.854 137.194L176.178 137.584C175.879 138.437 175.406 139.087 174.759 139.535C174.117 139.978 173.312 140.199 172.343 140.199C170.81 140.199 169.676 139.698 168.94 138.697C168.359 137.894 168.068 136.882 168.068 135.659C168.068 134.198 168.45 133.055 169.214 132.23C169.978 131.4 170.943 130.985 172.111 130.985C173.422 130.985 174.457 131.42 175.215 132.289C175.973 133.152 176.336 134.477 176.303 136.265H170.459C170.476 136.956 170.664 137.496 171.023 137.883C171.383 138.265 171.831 138.456 172.368 138.456C172.733 138.456 173.041 138.356 173.29 138.157C173.539 137.958 173.727 137.637 173.854 137.194ZM173.987 134.837C173.97 134.162 173.796 133.65 173.464 133.301C173.132 132.947 172.728 132.77 172.252 132.77C171.743 132.77 171.322 132.955 170.99 133.326C170.658 133.697 170.495 134.201 170.5 134.837H173.987ZM185.898 133.791L183.599 134.206C183.522 133.747 183.345 133.401 183.068 133.168C182.797 132.936 182.443 132.82 182.005 132.82C181.424 132.82 180.959 133.022 180.611 133.426C180.268 133.824 180.096 134.494 180.096 135.435C180.096 136.48 180.271 137.219 180.619 137.651C180.973 138.083 181.446 138.298 182.039 138.298C182.481 138.298 182.844 138.174 183.126 137.925C183.408 137.67 183.607 137.236 183.724 136.622L186.015 137.012C185.777 138.063 185.32 138.857 184.645 139.394C183.97 139.931 183.065 140.199 181.931 140.199C180.641 140.199 179.612 139.792 178.843 138.979C178.079 138.166 177.697 137.039 177.697 135.601C177.697 134.145 178.082 133.014 178.851 132.206C179.62 131.392 180.661 130.985 181.972 130.985C183.046 130.985 183.898 131.218 184.529 131.683C185.165 132.142 185.622 132.845 185.898 133.791ZM191.717 131.185V133.044H190.124V136.597C190.124 137.316 190.137 137.737 190.165 137.858C190.198 137.975 190.267 138.071 190.373 138.149C190.483 138.226 190.616 138.265 190.771 138.265C190.987 138.265 191.299 138.19 191.709 138.041L191.908 139.851C191.366 140.083 190.752 140.199 190.065 140.199C189.645 140.199 189.266 140.13 188.928 139.992C188.591 139.848 188.342 139.665 188.181 139.444C188.026 139.217 187.918 138.913 187.857 138.531C187.808 138.26 187.783 137.712 187.783 136.887V133.044H186.712V131.185H187.783V129.433L190.124 128.072V131.185H191.717ZM195.079 133.874L192.962 133.492C193.2 132.64 193.61 132.009 194.191 131.6C194.772 131.19 195.635 130.985 196.781 130.985C197.821 130.985 198.596 131.11 199.105 131.359C199.614 131.602 199.971 131.915 200.176 132.297C200.386 132.673 200.491 133.368 200.491 134.38L200.466 137.103C200.466 137.878 200.502 138.451 200.574 138.821C200.652 139.187 200.793 139.579 200.998 140H198.69C198.629 139.845 198.554 139.615 198.466 139.311C198.427 139.173 198.399 139.081 198.383 139.037C197.984 139.424 197.558 139.715 197.104 139.909C196.651 140.102 196.167 140.199 195.652 140.199C194.744 140.199 194.028 139.953 193.502 139.46C192.982 138.968 192.722 138.345 192.722 137.593C192.722 137.095 192.841 136.652 193.079 136.265C193.317 135.872 193.649 135.573 194.075 135.368C194.506 135.158 195.126 134.975 195.934 134.82C197.024 134.616 197.78 134.425 198.2 134.248V134.015C198.2 133.567 198.09 133.249 197.868 133.061C197.647 132.867 197.229 132.77 196.615 132.77C196.2 132.77 195.876 132.853 195.644 133.019C195.411 133.18 195.223 133.465 195.079 133.874ZM198.2 135.767C197.901 135.866 197.428 135.985 196.781 136.124C196.133 136.262 195.71 136.397 195.511 136.53C195.206 136.746 195.054 137.02 195.054 137.352C195.054 137.679 195.176 137.961 195.419 138.199C195.663 138.437 195.973 138.556 196.349 138.556C196.77 138.556 197.171 138.417 197.553 138.141C197.835 137.93 198.02 137.673 198.109 137.369C198.17 137.169 198.2 136.79 198.2 136.231V135.767ZM210.817 140H208.485V135.501C208.485 134.549 208.435 133.935 208.335 133.658C208.236 133.376 208.073 133.157 207.846 133.002C207.624 132.847 207.356 132.77 207.041 132.77C206.637 132.77 206.274 132.881 205.953 133.102C205.632 133.323 205.411 133.617 205.289 133.982C205.173 134.347 205.115 135.022 205.115 136.007V140H202.782V131.185H204.949V132.479C205.718 131.483 206.686 130.985 207.854 130.985C208.369 130.985 208.839 131.079 209.265 131.268C209.691 131.45 210.012 131.685 210.228 131.973C210.449 132.261 210.602 132.587 210.685 132.953C210.773 133.318 210.817 133.841 210.817 134.521V140ZM212.976 140.581L215.64 140.905C215.684 141.215 215.787 141.428 215.947 141.544C216.169 141.71 216.517 141.793 216.993 141.793C217.602 141.793 218.058 141.702 218.363 141.519C218.568 141.397 218.722 141.201 218.828 140.93C218.9 140.736 218.936 140.379 218.936 139.859V138.572C218.238 139.524 217.358 140 216.296 140C215.112 140 214.174 139.499 213.482 138.498C212.94 137.706 212.668 136.721 212.668 135.542C212.668 134.065 213.023 132.936 213.731 132.156C214.445 131.375 215.33 130.985 216.387 130.985C217.477 130.985 218.377 131.464 219.085 132.421V131.185H221.268V139.095C221.268 140.136 221.182 140.913 221.011 141.428C220.839 141.942 220.598 142.346 220.289 142.64C219.979 142.933 219.564 143.163 219.043 143.329C218.529 143.495 217.876 143.578 217.084 143.578C215.59 143.578 214.531 143.32 213.905 142.806C213.28 142.297 212.967 141.649 212.967 140.863C212.967 140.786 212.97 140.692 212.976 140.581ZM215.059 135.41C215.059 136.345 215.239 137.031 215.599 137.468C215.964 137.9 216.412 138.116 216.943 138.116C217.513 138.116 217.995 137.894 218.388 137.452C218.781 137.003 218.977 136.342 218.977 135.468C218.977 134.555 218.789 133.877 218.413 133.434C218.036 132.991 217.56 132.77 216.985 132.77C216.426 132.77 215.964 132.989 215.599 133.426C215.239 133.857 215.059 134.519 215.059 135.41ZM223.584 140V127.831H225.917V140H223.584ZM233.42 137.194L235.745 137.584C235.446 138.437 234.973 139.087 234.325 139.535C233.683 139.978 232.878 140.199 231.91 140.199C230.377 140.199 229.242 139.698 228.506 138.697C227.925 137.894 227.635 136.882 227.635 135.659C227.635 134.198 228.017 133.055 228.78 132.23C229.544 131.4 230.51 130.985 231.677 130.985C232.989 130.985 234.024 131.42 234.782 132.289C235.54 133.152 235.902 134.477 235.869 136.265H230.025C230.042 136.956 230.23 137.496 230.59 137.883C230.95 138.265 231.398 138.456 231.935 138.456C232.3 138.456 232.607 138.356 232.856 138.157C233.105 137.958 233.293 137.637 233.42 137.194ZM233.553 134.837C233.537 134.162 233.362 133.65 233.03 133.301C232.698 132.947 232.294 132.77 231.818 132.77C231.309 132.77 230.889 132.955 230.557 133.326C230.225 133.697 230.061 134.201 230.067 134.837H233.553ZM249.889 137.833V140H241.713C241.801 139.181 242.067 138.406 242.51 137.676C242.952 136.94 243.827 135.966 245.133 134.754C246.184 133.774 246.829 133.11 247.067 132.762C247.388 132.28 247.548 131.804 247.548 131.334C247.548 130.814 247.407 130.415 247.125 130.139C246.848 129.856 246.464 129.715 245.971 129.715C245.484 129.715 245.097 129.862 244.809 130.155C244.521 130.449 244.355 130.936 244.311 131.616L241.987 131.384C242.125 130.1 242.56 129.179 243.29 128.62C244.021 128.061 244.934 127.781 246.029 127.781C247.23 127.781 248.174 128.105 248.86 128.752C249.546 129.4 249.889 130.205 249.889 131.168C249.889 131.716 249.79 132.239 249.59 132.737C249.397 133.229 249.087 133.747 248.661 134.289C248.378 134.649 247.869 135.166 247.133 135.841C246.397 136.516 245.93 136.965 245.73 137.186C245.537 137.407 245.379 137.623 245.257 137.833H249.889ZM136.019 156.771L138.277 156.497C138.349 157.073 138.542 157.513 138.858 157.817C139.173 158.121 139.555 158.273 140.003 158.273C140.485 158.273 140.889 158.091 141.215 157.726C141.547 157.36 141.713 156.868 141.713 156.248C141.713 155.661 141.556 155.197 141.24 154.854C140.925 154.51 140.54 154.339 140.086 154.339C139.788 154.339 139.431 154.397 139.016 154.513L139.273 152.612C139.904 152.629 140.385 152.493 140.717 152.206C141.049 151.912 141.215 151.525 141.215 151.043C141.215 150.634 141.094 150.307 140.85 150.064C140.607 149.82 140.283 149.699 139.879 149.699C139.48 149.699 139.14 149.837 138.858 150.114C138.576 150.39 138.404 150.794 138.343 151.326L136.193 150.96C136.343 150.224 136.567 149.638 136.866 149.201C137.17 148.758 137.591 148.412 138.127 148.163C138.67 147.909 139.276 147.781 139.945 147.781C141.091 147.781 142.009 148.146 142.701 148.877C143.271 149.475 143.556 150.15 143.556 150.902C143.556 151.97 142.972 152.823 141.805 153.459C142.502 153.608 143.058 153.943 143.473 154.463C143.894 154.984 144.104 155.612 144.104 156.348C144.104 157.416 143.714 158.326 142.934 159.079C142.153 159.831 141.182 160.208 140.02 160.208C138.919 160.208 138.006 159.892 137.281 159.261C136.556 158.625 136.135 157.795 136.019 156.771ZM145.482 156.771L147.74 156.497C147.812 157.073 148.005 157.513 148.321 157.817C148.636 158.121 149.018 158.273 149.466 158.273C149.948 158.273 150.352 158.091 150.678 157.726C151.01 157.36 151.176 156.868 151.176 156.248C151.176 155.661 151.019 155.197 150.703 154.854C150.388 154.51 150.003 154.339 149.549 154.339C149.25 154.339 148.894 154.397 148.479 154.513L148.736 152.612C149.367 152.629 149.848 152.493 150.18 152.206C150.512 151.912 150.678 151.525 150.678 151.043C150.678 150.634 150.556 150.307 150.313 150.064C150.069 149.82 149.746 149.699 149.342 149.699C148.943 149.699 148.603 149.837 148.321 150.114C148.039 150.39 147.867 150.794 147.806 151.326L145.656 150.96C145.806 150.224 146.03 149.638 146.329 149.201C146.633 148.758 147.054 148.412 147.59 148.163C148.133 147.909 148.739 147.781 149.408 147.781C150.554 147.781 151.472 148.146 152.164 148.877C152.734 149.475 153.019 150.15 153.019 150.902C153.019 151.97 152.435 152.823 151.268 153.459C151.965 153.608 152.521 153.943 152.936 154.463C153.357 154.984 153.567 155.612 153.567 156.348C153.567 157.416 153.177 158.326 152.396 159.079C151.616 159.831 150.645 160.208 149.483 160.208C148.382 160.208 147.469 159.892 146.744 159.261C146.019 158.625 145.598 157.795 145.482 156.771ZM162.93 150.811L160.672 151.06C160.617 150.595 160.473 150.252 160.241 150.031C160.008 149.809 159.707 149.699 159.336 149.699C158.843 149.699 158.426 149.92 158.083 150.363C157.745 150.806 157.532 151.727 157.443 153.127C158.024 152.441 158.747 152.098 159.61 152.098C160.584 152.098 161.417 152.468 162.108 153.21C162.806 153.951 163.154 154.909 163.154 156.082C163.154 157.327 162.789 158.326 162.059 159.079C161.328 159.831 160.39 160.208 159.245 160.208C158.016 160.208 157.006 159.732 156.215 158.78C155.424 157.822 155.028 156.256 155.028 154.082C155.028 151.851 155.44 150.244 156.265 149.259C157.089 148.274 158.16 147.781 159.477 147.781C160.401 147.781 161.165 148.041 161.768 148.562C162.377 149.076 162.764 149.826 162.93 150.811ZM157.643 155.899C157.643 156.658 157.817 157.244 158.166 157.659C158.514 158.069 158.913 158.273 159.361 158.273C159.792 158.273 160.152 158.105 160.44 157.767C160.728 157.43 160.872 156.876 160.872 156.107C160.872 155.316 160.717 154.737 160.407 154.372C160.097 154.001 159.709 153.816 159.245 153.816C158.796 153.816 158.417 153.993 158.107 154.347C157.798 154.696 157.643 155.213 157.643 155.899ZM163.868 160L167.047 155.459L164.001 151.185H166.848L168.409 153.608L170.052 151.185H172.792L169.803 155.36L173.065 160H170.202L168.409 157.269L166.599 160H163.868ZM181.831 157.833V160H173.655C173.743 159.181 174.009 158.406 174.452 157.676C174.894 156.94 175.769 155.966 177.075 154.754C178.126 153.774 178.771 153.11 179.009 152.762C179.33 152.28 179.49 151.804 179.49 151.334C179.49 150.814 179.349 150.415 179.067 150.139C178.79 149.856 178.406 149.715 177.913 149.715C177.426 149.715 177.039 149.862 176.751 150.155C176.463 150.449 176.297 150.936 176.253 151.616L173.929 151.384C174.067 150.1 174.501 149.179 175.232 148.62C175.962 148.061 176.875 147.781 177.971 147.781C179.172 147.781 180.116 148.105 180.802 148.752C181.488 149.4 181.831 150.205 181.831 151.168C181.831 151.716 181.731 152.239 181.532 152.737C181.339 153.229 181.029 153.747 180.603 154.289C180.32 154.649 179.811 155.166 179.075 155.841C178.339 156.516 177.872 156.965 177.672 157.186C177.479 157.407 177.321 157.623 177.199 157.833H181.831ZM185.417 153.434C184.814 153.18 184.374 152.831 184.097 152.388C183.826 151.94 183.69 151.45 183.69 150.919C183.69 150.011 184.006 149.262 184.637 148.669C185.273 148.077 186.175 147.781 187.343 147.781C188.499 147.781 189.396 148.077 190.032 148.669C190.674 149.262 190.995 150.011 190.995 150.919C190.995 151.483 190.848 151.987 190.555 152.43C190.262 152.867 189.85 153.202 189.318 153.434C189.993 153.705 190.505 154.101 190.854 154.621C191.208 155.141 191.385 155.742 191.385 156.422C191.385 157.546 191.026 158.459 190.306 159.162C189.592 159.864 188.64 160.216 187.451 160.216C186.344 160.216 185.423 159.925 184.687 159.344C183.818 158.658 183.383 157.717 183.383 156.522C183.383 155.863 183.547 155.26 183.873 154.712C184.2 154.159 184.714 153.733 185.417 153.434ZM185.898 151.085C185.898 151.55 186.028 151.912 186.289 152.172C186.554 152.432 186.906 152.562 187.343 152.562C187.785 152.562 188.14 152.432 188.405 152.172C188.671 151.907 188.804 151.542 188.804 151.077C188.804 150.639 188.671 150.291 188.405 150.031C188.145 149.765 187.799 149.632 187.368 149.632C186.919 149.632 186.562 149.765 186.297 150.031C186.031 150.296 185.898 150.648 185.898 151.085ZM185.683 156.298C185.683 156.94 185.846 157.441 186.172 157.8C186.504 158.16 186.917 158.34 187.409 158.34C187.891 158.34 188.289 158.168 188.604 157.825C188.92 157.477 189.078 156.976 189.078 156.323C189.078 155.753 188.917 155.296 188.596 154.953C188.275 154.604 187.868 154.43 187.376 154.43C186.806 154.43 186.38 154.627 186.098 155.02C185.821 155.412 185.683 155.839 185.683 156.298ZM196.822 147.781C198.001 147.781 198.922 148.202 199.586 149.043C200.378 150.039 200.773 151.691 200.773 153.999C200.773 156.301 200.375 157.955 199.578 158.962C198.92 159.792 198.001 160.208 196.822 160.208C195.638 160.208 194.683 159.754 193.958 158.846C193.234 157.933 192.871 156.309 192.871 153.974C192.871 151.683 193.27 150.034 194.066 149.026C194.725 148.196 195.644 147.781 196.822 147.781ZM196.822 149.715C196.54 149.715 196.288 149.807 196.067 149.989C195.846 150.166 195.674 150.487 195.552 150.952C195.392 151.555 195.312 152.571 195.312 153.999C195.312 155.426 195.383 156.409 195.527 156.945C195.671 157.477 195.851 157.831 196.067 158.008C196.288 158.185 196.54 158.273 196.822 158.273C197.104 158.273 197.356 158.185 197.578 158.008C197.799 157.825 197.971 157.501 198.092 157.037C198.253 156.439 198.333 155.426 198.333 153.999C198.333 152.571 198.261 151.591 198.117 151.06C197.973 150.523 197.791 150.166 197.569 149.989C197.354 149.807 197.104 149.715 196.822 149.715Z" fill="white"/>
</svg>
