<svg width="320" height="100" viewBox="0 0 320 100" fill="none" xmlns="http://www.w3.org/2000/svg">
<rect width="320" height="100" fill="black"/>
<path d="M125.842 50V39.8896H122.231V37.8311H131.902V39.8896H128.299V50H125.842ZM131.678 45.4678C131.678 44.693 131.869 43.9432 132.25 43.2183C132.632 42.4933 133.172 41.9399 133.869 41.5581C134.572 41.1763 135.355 40.9854 136.218 40.9854C137.552 40.9854 138.645 41.4198 139.497 42.2886C140.349 43.1519 140.775 44.2448 140.775 45.5674C140.775 46.901 140.344 48.0078 139.48 48.8877C138.623 49.762 137.541 50.1992 136.235 50.1992C135.427 50.1992 134.655 50.0166 133.919 49.6514C133.188 49.2861 132.632 48.7521 132.25 48.0493C131.869 47.341 131.678 46.4805 131.678 45.4678ZM134.068 45.5923C134.068 46.4666 134.276 47.1362 134.691 47.6011C135.106 48.0659 135.618 48.2983 136.227 48.2983C136.835 48.2983 137.344 48.0659 137.754 47.6011C138.169 47.1362 138.376 46.4611 138.376 45.5757C138.376 44.7124 138.169 44.0483 137.754 43.5835C137.344 43.1187 136.835 42.8862 136.227 42.8862C135.618 42.8862 135.106 43.1187 134.691 43.5835C134.276 44.0483 134.068 44.7179 134.068 45.5923ZM142.543 41.1846H144.718V42.4795C145 42.0368 145.382 41.6771 145.864 41.4004C146.345 41.1237 146.879 40.9854 147.466 40.9854C148.49 40.9854 149.358 41.3866 150.072 42.189C150.786 42.9914 151.143 44.1092 151.143 45.5425C151.143 47.0145 150.783 48.16 150.064 48.979C149.345 49.7925 148.473 50.1992 147.449 50.1992C146.962 50.1992 146.52 50.1024 146.121 49.9087C145.728 49.715 145.313 49.383 144.876 48.9126V53.3535H142.543V41.1846ZM144.851 45.4429C144.851 46.4334 145.048 47.1667 145.44 47.6426C145.833 48.113 146.312 48.3481 146.876 48.3481C147.419 48.3481 147.87 48.1323 148.229 47.7007C148.589 47.2635 148.769 46.5496 148.769 45.5591C148.769 44.6349 148.584 43.9487 148.213 43.5005C147.842 43.0522 147.383 42.8281 146.835 42.8281C146.265 42.8281 145.792 43.0495 145.416 43.4922C145.039 43.9294 144.851 44.5796 144.851 45.4429ZM157.759 37.8311H162.623C163.586 37.8311 164.303 37.8726 164.773 37.9556C165.249 38.033 165.672 38.1991 166.043 38.4536C166.419 38.7082 166.732 39.0485 166.981 39.4746C167.23 39.8952 167.354 40.3683 167.354 40.894C167.354 41.464 167.2 41.987 166.89 42.4629C166.585 42.9388 166.17 43.2957 165.645 43.5337C166.386 43.7495 166.956 44.1175 167.354 44.6377C167.753 45.1579 167.952 45.7694 167.952 46.4722C167.952 47.0256 167.822 47.5651 167.562 48.0908C167.307 48.611 166.956 49.0288 166.508 49.3442C166.065 49.6541 165.517 49.8451 164.864 49.917C164.455 49.9613 163.467 49.9889 161.901 50H157.759V37.8311ZM160.216 39.8564V42.6704H161.826C162.784 42.6704 163.378 42.6566 163.611 42.6289C164.031 42.5791 164.361 42.4352 164.599 42.1973C164.842 41.9538 164.964 41.6356 164.964 41.2427C164.964 40.8664 164.859 40.562 164.648 40.3296C164.444 40.0916 164.137 39.9478 163.727 39.8979C163.484 39.8703 162.784 39.8564 161.627 39.8564H160.216ZM160.216 44.6958V47.9497H162.49C163.376 47.9497 163.937 47.9248 164.175 47.875C164.541 47.8086 164.837 47.6481 165.063 47.3936C165.296 47.1335 165.412 46.7876 165.412 46.356C165.412 45.9907 165.324 45.6808 165.146 45.4263C164.969 45.1717 164.712 44.9863 164.375 44.8701C164.042 44.7539 163.318 44.6958 162.2 44.6958H160.216ZM171.762 43.874L169.646 43.4922C169.883 42.64 170.293 42.0091 170.874 41.5996C171.455 41.1901 172.318 40.9854 173.464 40.9854C174.504 40.9854 175.279 41.1099 175.788 41.3589C176.297 41.6024 176.654 41.915 176.859 42.2969C177.069 42.6732 177.174 43.3677 177.174 44.3804L177.149 47.103C177.149 47.8778 177.185 48.4505 177.257 48.8213C177.335 49.1865 177.476 49.5794 177.681 50H175.373C175.312 49.8451 175.237 49.6154 175.149 49.311C175.11 49.1727 175.083 49.0814 175.066 49.0371C174.667 49.4245 174.241 49.715 173.788 49.9087C173.334 50.1024 172.85 50.1992 172.335 50.1992C171.427 50.1992 170.711 49.953 170.185 49.4604C169.665 48.9679 169.405 48.3454 169.405 47.5928C169.405 47.0947 169.524 46.652 169.762 46.2646C170 45.8717 170.332 45.5729 170.758 45.3682C171.189 45.1579 171.809 44.9753 172.617 44.8203C173.707 44.6156 174.463 44.4246 174.883 44.2476V44.0151C174.883 43.5669 174.773 43.2487 174.551 43.0605C174.33 42.8669 173.912 42.77 173.298 42.77C172.883 42.77 172.559 42.853 172.327 43.019C172.094 43.1795 171.906 43.4645 171.762 43.874ZM174.883 45.7666C174.584 45.8662 174.111 45.9852 173.464 46.1235C172.816 46.2619 172.393 46.3975 172.194 46.5303C171.889 46.7461 171.737 47.02 171.737 47.3521C171.737 47.6785 171.859 47.9608 172.103 48.1987C172.346 48.4367 172.656 48.5557 173.032 48.5557C173.453 48.5557 173.854 48.4173 174.236 48.1406C174.518 47.9303 174.703 47.673 174.792 47.3687C174.853 47.1694 174.883 46.7904 174.883 46.2314V45.7666ZM187.5 50H185.168V45.501C185.168 44.5492 185.118 43.9349 185.019 43.6582C184.919 43.376 184.756 43.1574 184.529 43.0024C184.307 42.8475 184.039 42.77 183.724 42.77C183.32 42.77 182.957 42.8807 182.636 43.1021C182.315 43.3234 182.094 43.6167 181.972 43.9819C181.856 44.3472 181.798 45.0223 181.798 46.0073V50H179.465V41.1846H181.632V42.4795C182.401 41.4834 183.369 40.9854 184.537 40.9854C185.052 40.9854 185.522 41.0794 185.948 41.2676C186.374 41.4502 186.695 41.6854 186.911 41.9731C187.132 42.2609 187.285 42.5874 187.368 42.9526C187.456 43.3179 187.5 43.8408 187.5 44.5215V50ZM197.893 50H195.561V45.501C195.561 44.5492 195.511 43.9349 195.411 43.6582C195.312 43.376 195.148 43.1574 194.921 43.0024C194.7 42.8475 194.432 42.77 194.116 42.77C193.712 42.77 193.35 42.8807 193.029 43.1021C192.708 43.3234 192.486 43.6167 192.365 43.9819C192.249 44.3472 192.19 45.0223 192.19 46.0073V50H189.858V41.1846H192.024V42.4795C192.794 41.4834 193.762 40.9854 194.93 40.9854C195.444 40.9854 195.915 41.0794 196.341 41.2676C196.767 41.4502 197.088 41.6854 197.304 41.9731C197.525 42.2609 197.677 42.5874 197.76 42.9526C197.849 43.3179 197.893 43.8408 197.893 44.5215V50ZM205.372 47.1943L207.696 47.5845C207.397 48.4367 206.924 49.0869 206.277 49.5352C205.635 49.9779 204.83 50.1992 203.861 50.1992C202.328 50.1992 201.194 49.6984 200.458 48.6968C199.877 47.8944 199.586 46.8817 199.586 45.6587C199.586 44.1978 199.968 43.055 200.732 42.2305C201.496 41.4004 202.461 40.9854 203.629 40.9854C204.94 40.9854 205.975 41.4198 206.733 42.2886C207.492 43.1519 207.854 44.4772 207.821 46.2646H201.977C201.994 46.9564 202.182 47.4959 202.542 47.8833C202.901 48.2651 203.349 48.4561 203.886 48.4561C204.251 48.4561 204.559 48.3564 204.808 48.1572C205.057 47.958 205.245 47.637 205.372 47.1943ZM205.505 44.8369C205.488 44.1618 205.314 43.6499 204.982 43.3013C204.65 42.9471 204.246 42.77 203.77 42.77C203.261 42.77 202.84 42.9554 202.508 43.3262C202.176 43.6969 202.013 44.2005 202.019 44.8369H205.505ZM211.963 50H209.63V41.1846H211.797V42.438C212.168 41.8459 212.5 41.4557 212.793 41.2676C213.092 41.0794 213.429 40.9854 213.806 40.9854C214.337 40.9854 214.849 41.132 215.341 41.4253L214.619 43.459C214.226 43.2044 213.861 43.0771 213.523 43.0771C213.197 43.0771 212.92 43.1685 212.693 43.3511C212.466 43.5282 212.287 43.8519 212.154 44.3223C212.027 44.7926 211.963 45.7777 211.963 47.2773V50ZM136.019 66.771L138.277 66.4971C138.349 67.0726 138.542 67.5125 138.858 67.8169C139.173 68.1213 139.555 68.2734 140.003 68.2734C140.485 68.2734 140.889 68.0908 141.215 67.7256C141.547 67.3604 141.713 66.8678 141.713 66.248C141.713 65.6615 141.556 65.1966 141.24 64.8535C140.925 64.5104 140.54 64.3389 140.086 64.3389C139.788 64.3389 139.431 64.397 139.016 64.5132L139.273 62.6123C139.904 62.6289 140.385 62.4933 140.717 62.2056C141.049 61.9123 141.215 61.5249 141.215 61.0435C141.215 60.634 141.094 60.3075 140.85 60.064C140.607 59.8205 140.283 59.6987 139.879 59.6987C139.48 59.6987 139.14 59.8371 138.858 60.1138C138.576 60.3905 138.404 60.7944 138.343 61.3257L136.193 60.9604C136.343 60.2244 136.567 59.6379 136.866 59.2007C137.17 58.758 137.591 58.4121 138.127 58.1631C138.67 57.9085 139.276 57.7812 139.945 57.7812C141.091 57.7812 142.009 58.1465 142.701 58.877C143.271 59.4746 143.556 60.1497 143.556 60.9023C143.556 61.9704 142.972 62.8226 141.805 63.459C142.502 63.6084 143.058 63.9432 143.473 64.4634C143.894 64.9836 144.104 65.6117 144.104 66.3477C144.104 67.4157 143.714 68.326 142.934 69.0786C142.153 69.8312 141.182 70.2075 140.02 70.2075C138.919 70.2075 138.006 69.8921 137.281 69.2612C136.556 68.6248 136.135 67.7948 136.019 66.771ZM153.442 67.8335V70H145.266C145.355 69.181 145.62 68.4062 146.063 67.6758C146.506 66.9398 147.38 65.9658 148.686 64.7539C149.737 63.7744 150.382 63.1104 150.62 62.7617C150.941 62.2803 151.102 61.8044 151.102 61.334C151.102 60.8138 150.96 60.4154 150.678 60.1387C150.402 59.8564 150.017 59.7153 149.524 59.7153C149.037 59.7153 148.65 59.862 148.362 60.1553C148.075 60.4486 147.909 60.9355 147.864 61.6162L145.54 61.3838C145.678 60.0999 146.113 59.1785 146.843 58.6196C147.574 58.0607 148.487 57.7812 149.583 57.7812C150.783 57.7812 151.727 58.105 152.413 58.7524C153.099 59.3999 153.442 60.2051 153.442 61.168C153.442 61.7158 153.343 62.2388 153.144 62.7368C152.95 63.2293 152.64 63.7467 152.214 64.2891C151.932 64.6488 151.423 65.1662 150.687 65.8413C149.951 66.5164 149.483 66.9647 149.284 67.186C149.09 67.4074 148.932 67.6232 148.811 67.8335H153.442ZM158.971 57.7812C160.149 57.7812 161.071 58.2018 161.735 59.043C162.526 60.0391 162.922 61.6909 162.922 63.9985C162.922 66.3006 162.523 67.9552 161.727 68.9624C161.068 69.7925 160.149 70.2075 158.971 70.2075C157.786 70.2075 156.832 69.7537 156.107 68.8462C155.382 67.9331 155.02 66.3089 155.02 63.9736C155.02 61.6826 155.418 60.0335 156.215 59.0264C156.873 58.1963 157.792 57.7812 158.971 57.7812ZM158.971 59.7153C158.688 59.7153 158.437 59.8066 158.215 59.9893C157.994 60.1663 157.822 60.4873 157.701 60.9521C157.54 61.5553 157.46 62.5708 157.46 63.9985C157.46 65.4263 157.532 66.4085 157.676 66.9453C157.82 67.4766 158 67.8307 158.215 68.0078C158.437 68.1849 158.688 68.2734 158.971 68.2734C159.253 68.2734 159.505 68.1849 159.726 68.0078C159.947 67.8252 160.119 67.5015 160.241 67.0366C160.401 66.439 160.481 65.4263 160.481 63.9985C160.481 62.5708 160.41 61.5913 160.266 61.0601C160.122 60.5233 159.939 60.1663 159.718 59.9893C159.502 59.8066 159.253 59.7153 158.971 59.7153ZM163.868 70L167.047 65.4595L164.001 61.1846H166.848L168.409 63.6084L170.052 61.1846H172.792L169.803 65.3599L173.065 70H170.202L168.409 67.269L166.599 70H163.868ZM179.922 70H177.589V61.2095C176.737 62.0063 175.733 62.5957 174.576 62.9775V60.8608C175.185 60.6616 175.846 60.2853 176.56 59.7319C177.274 59.173 177.764 58.5228 178.029 57.7812H179.922V70ZM187.359 57.7812C188.538 57.7812 189.459 58.2018 190.124 59.043C190.915 60.0391 191.311 61.6909 191.311 63.9985C191.311 66.3006 190.912 67.9552 190.115 68.9624C189.457 69.7925 188.538 70.2075 187.359 70.2075C186.175 70.2075 185.221 69.7537 184.496 68.8462C183.771 67.9331 183.408 66.3089 183.408 63.9736C183.408 61.6826 183.807 60.0335 184.604 59.0264C185.262 58.1963 186.181 57.7812 187.359 57.7812ZM187.359 59.7153C187.077 59.7153 186.825 59.8066 186.604 59.9893C186.383 60.1663 186.211 60.4873 186.089 60.9521C185.929 61.5553 185.849 62.5708 185.849 63.9985C185.849 65.4263 185.921 66.4085 186.064 66.9453C186.208 67.4766 186.388 67.8307 186.604 68.0078C186.825 68.1849 187.077 68.2734 187.359 68.2734C187.642 68.2734 187.893 68.1849 188.115 68.0078C188.336 67.8252 188.508 67.5015 188.629 67.0366C188.79 66.439 188.87 65.4263 188.87 63.9985C188.87 62.5708 188.798 61.5913 188.654 61.0601C188.51 60.5233 188.328 60.1663 188.106 59.9893C187.891 59.8066 187.642 59.7153 187.359 59.7153ZM196.822 57.7812C198.001 57.7812 198.922 58.2018 199.586 59.043C200.378 60.0391 200.773 61.6909 200.773 63.9985C200.773 66.3006 200.375 67.9552 199.578 68.9624C198.92 69.7925 198.001 70.2075 196.822 70.2075C195.638 70.2075 194.683 69.7537 193.958 68.8462C193.234 67.9331 192.871 66.3089 192.871 63.9736C192.871 61.6826 193.27 60.0335 194.066 59.0264C194.725 58.1963 195.644 57.7812 196.822 57.7812ZM196.822 59.7153C196.54 59.7153 196.288 59.8066 196.067 59.9893C195.846 60.1663 195.674 60.4873 195.552 60.9521C195.392 61.5553 195.312 62.5708 195.312 63.9985C195.312 65.4263 195.383 66.4085 195.527 66.9453C195.671 67.4766 195.851 67.8307 196.067 68.0078C196.288 68.1849 196.54 68.2734 196.822 68.2734C197.104 68.2734 197.356 68.1849 197.578 68.0078C197.799 67.8252 197.971 67.5015 198.092 67.0366C198.253 66.439 198.333 65.4263 198.333 63.9985C198.333 62.5708 198.261 61.5913 198.117 61.0601C197.973 60.5233 197.791 60.1663 197.569 59.9893C197.354 59.8066 197.104 59.7153 196.822 59.7153Z" fill="white"/>
</svg>
